info face="Press Start K" size=32 bold=0 italic=0 charset="ANSI" unicode=0 stretchH=100 smooth=1 aa=1 padding=0,0,0,0 spacing=1,1 outline=0
common lineHeight=32 base=28 scaleW=512 scaleH=512 pages=1 packed=0 alphaChnl=1 redChnl=0 greenChnl=0 blueChnl=0
page id=0 file="press_start_512_0.png"
chars count=209
char id=32   x=181   y=31    width=3     height=1     xoffset=-1    yoffset=31    xadvance=32    page=0  chnl=15
char id=33   x=80    y=207   width=18    height=28    xoffset=7     yoffset=0     xadvance=32    page=0  chnl=15
char id=34   x=287   y=249   width=22    height=12    xoffset=3     yoffset=0     xadvance=32    page=0  chnl=15
char id=35   x=341   y=224   width=30    height=20    xoffset=-1    yoffset=4     xadvance=32    page=0  chnl=15
char id=36   x=244   y=116   width=26    height=28    xoffset=3     yoffset=0     xadvance=32    page=0  chnl=15
char id=37   x=271   y=116   width=26    height=28    xoffset=3     yoffset=0     xadvance=32    page=0  chnl=15
char id=38   x=212   y=0     width=30    height=28    xoffset=-1    yoffset=0     xadvance=32    page=0  chnl=15
char id=39   x=344   y=245   width=10    height=12    xoffset=11    yoffset=0     xadvance=32    page=0  chnl=15
char id=40   x=61    y=207   width=18    height=28    xoffset=7     yoffset=0     xadvance=32    page=0  chnl=15
char id=41   x=137   y=207   width=18    height=28    xoffset=7     yoffset=0     xadvance=32    page=0  chnl=15
char id=42   x=465   y=203   width=30    height=20    xoffset=-1    yoffset=4     xadvance=32    page=0  chnl=15
char id=43   x=457   y=224   width=26    height=20    xoffset=3     yoffset=4     xadvance=32    page=0  chnl=15
char id=44   x=329   y=249   width=14    height=12    xoffset=7     yoffset=20    xadvance=32    page=0  chnl=15
char id=45   x=454   y=245   width=26    height=4     xoffset=3     yoffset=12    xadvance=32    page=0  chnl=15
char id=46   x=412   y=245   width=10    height=8     xoffset=11    yoffset=20    xadvance=32    page=0  chnl=15
char id=47   x=298   y=116   width=26    height=28    xoffset=3     yoffset=0     xadvance=32    page=0  chnl=15
char id=48   x=460   y=0     width=30    height=28    xoffset=-1    yoffset=0     xadvance=32    page=0  chnl=15
char id=49   x=325   y=116   width=26    height=28    xoffset=3     yoffset=0     xadvance=32    page=0  chnl=15
char id=50   x=31    y=33    width=30    height=28    xoffset=-1    yoffset=0     xadvance=32    page=0  chnl=15
char id=51   x=62    y=33    width=30    height=28    xoffset=-1    yoffset=0     xadvance=32    page=0  chnl=15
char id=52   x=93    y=33    width=30    height=28    xoffset=-1    yoffset=0     xadvance=32    page=0  chnl=15
char id=53   x=93    y=91    width=30    height=28    xoffset=-1    yoffset=0     xadvance=32    page=0  chnl=15
char id=54   x=155   y=33    width=30    height=28    xoffset=-1    yoffset=0     xadvance=32    page=0  chnl=15
char id=55   x=186   y=29    width=30    height=28    xoffset=-1    yoffset=0     xadvance=32    page=0  chnl=15
char id=56   x=217   y=29    width=30    height=28    xoffset=-1    yoffset=0     xadvance=32    page=0  chnl=15
char id=57   x=248   y=29    width=30    height=28    xoffset=-1    yoffset=0     xadvance=32    page=0  chnl=15
char id=58   x=138   y=257   width=10    height=20    xoffset=11    yoffset=8     xadvance=32    page=0  chnl=15
char id=59   x=311   y=203   width=14    height=24    xoffset=7     yoffset=8     xadvance=32    page=0  chnl=15
char id=60   x=419   y=174   width=22    height=28    xoffset=3     yoffset=0     xadvance=32    page=0  chnl=15
char id=61   x=310   y=249   width=18    height=12    xoffset=7     yoffset=8     xadvance=32    page=0  chnl=15
char id=62   x=373   y=174   width=22    height=28    xoffset=7     yoffset=0     xadvance=32    page=0  chnl=15
char id=63   x=434   y=29    width=30    height=28    xoffset=-1    yoffset=0     xadvance=32    page=0  chnl=15
char id=64   x=465   y=29    width=30    height=28    xoffset=-1    yoffset=0     xadvance=32    page=0  chnl=15
char id=65   x=0     y=62    width=30    height=28    xoffset=-1    yoffset=0     xadvance=32    page=0  chnl=15
char id=66   x=31    y=62    width=30    height=28    xoffset=-1    yoffset=0     xadvance=32    page=0  chnl=15
char id=67   x=62    y=62    width=30    height=28    xoffset=-1    yoffset=0     xadvance=32    page=0  chnl=15
char id=68   x=93    y=62    width=30    height=28    xoffset=-1    yoffset=0     xadvance=32    page=0  chnl=15
char id=69   x=124   y=62    width=30    height=28    xoffset=-1    yoffset=0     xadvance=32    page=0  chnl=15
char id=70   x=155   y=62    width=30    height=28    xoffset=-1    yoffset=0     xadvance=32    page=0  chnl=15
char id=71   x=186   y=58    width=30    height=28    xoffset=-1    yoffset=0     xadvance=32    page=0  chnl=15
char id=72   x=217   y=58    width=30    height=28    xoffset=-1    yoffset=0     xadvance=32    page=0  chnl=15
char id=73   x=379   y=116   width=26    height=28    xoffset=3     yoffset=0     xadvance=32    page=0  chnl=15
char id=74   x=124   y=33    width=30    height=28    xoffset=-1    yoffset=0     xadvance=32    page=0  chnl=15
char id=75   x=310   y=58    width=30    height=28    xoffset=-1    yoffset=0     xadvance=32    page=0  chnl=15
char id=76   x=341   y=58    width=30    height=28    xoffset=-1    yoffset=0     xadvance=32    page=0  chnl=15
char id=77   x=372   y=58    width=30    height=28    xoffset=-1    yoffset=0     xadvance=32    page=0  chnl=15
char id=78   x=403   y=58    width=30    height=28    xoffset=-1    yoffset=0     xadvance=32    page=0  chnl=15
char id=79   x=434   y=58    width=30    height=28    xoffset=-1    yoffset=0     xadvance=32    page=0  chnl=15
char id=80   x=465   y=58    width=30    height=28    xoffset=-1    yoffset=0     xadvance=32    page=0  chnl=15
char id=81   x=0     y=91    width=30    height=28    xoffset=-1    yoffset=0     xadvance=32    page=0  chnl=15
char id=82   x=31    y=91    width=30    height=28    xoffset=-1    yoffset=0     xadvance=32    page=0  chnl=15
char id=83   x=62    y=91    width=30    height=28    xoffset=-1    yoffset=0     xadvance=32    page=0  chnl=15
char id=84   x=406   y=116   width=26    height=28    xoffset=3     yoffset=0     xadvance=32    page=0  chnl=15
char id=85   x=124   y=91    width=30    height=28    xoffset=-1    yoffset=0     xadvance=32    page=0  chnl=15
char id=86   x=155   y=91    width=30    height=28    xoffset=-1    yoffset=0     xadvance=32    page=0  chnl=15
char id=87   x=186   y=87    width=30    height=28    xoffset=-1    yoffset=0     xadvance=32    page=0  chnl=15
char id=88   x=217   y=87    width=30    height=28    xoffset=-1    yoffset=0     xadvance=32    page=0  chnl=15
char id=89   x=433   y=116   width=26    height=28    xoffset=3     yoffset=0     xadvance=32    page=0  chnl=15
char id=90   x=279   y=87    width=30    height=28    xoffset=-1    yoffset=0     xadvance=32    page=0  chnl=15
char id=91   x=118   y=207   width=18    height=28    xoffset=7     yoffset=0     xadvance=32    page=0  chnl=15
char id=92   x=460   y=116   width=26    height=28    xoffset=3     yoffset=0     xadvance=32    page=0  chnl=15
char id=93   x=99    y=207   width=18    height=28    xoffset=7     yoffset=0     xadvance=32    page=0  chnl=15
char id=94   x=180   y=257   width=30    height=16    xoffset=-1    yoffset=0     xadvance=32    page=0  chnl=15
char id=95   x=423   y=245   width=30    height=4     xoffset=-1    yoffset=28    xadvance=32    page=0  chnl=15
char id=96   x=386   y=245   width=14    height=8     xoffset=3     yoffset=0     xadvance=32    page=0  chnl=15
char id=97   x=93    y=236   width=30    height=20    xoffset=-1    yoffset=8     xadvance=32    page=0  chnl=15
char id=98   x=31    y=120   width=30    height=28    xoffset=-1    yoffset=0     xadvance=32    page=0  chnl=15
char id=99   x=155   y=236   width=30    height=20    xoffset=-1    yoffset=8     xadvance=32    page=0  chnl=15
char id=100  x=93    y=120   width=30    height=28    xoffset=-1    yoffset=0     xadvance=32    page=0  chnl=15
char id=101  x=186   y=232   width=30    height=20    xoffset=-1    yoffset=8     xadvance=32    page=0  chnl=15
char id=102  x=0     y=149   width=26    height=28    xoffset=3     yoffset=0     xadvance=32    page=0  chnl=15
char id=103  x=187   y=207   width=30    height=24    xoffset=-1    yoffset=8     xadvance=32    page=0  chnl=15
char id=104  x=0     y=120   width=30    height=28    xoffset=-1    yoffset=0     xadvance=32    page=0  chnl=15
char id=105  x=42    y=207   width=18    height=28    xoffset=7     yoffset=0     xadvance=32    page=0  chnl=15
char id=106  x=147   y=0     width=18    height=32    xoffset=3     yoffset=0     xadvance=32    page=0  chnl=15
char id=107  x=27    y=149   width=26    height=28    xoffset=-1    yoffset=0     xadvance=32    page=0  chnl=15
char id=108  x=23    y=207   width=18    height=28    xoffset=7     yoffset=0     xadvance=32    page=0  chnl=15
char id=109  x=341   y=203   width=30    height=20    xoffset=-1    yoffset=8     xadvance=32    page=0  chnl=15
char id=110  x=310   y=228   width=30    height=20    xoffset=-1    yoffset=8     xadvance=32    page=0  chnl=15
char id=111  x=279   y=228   width=30    height=20    xoffset=-1    yoffset=8     xadvance=32    page=0  chnl=15
char id=112  x=249   y=203   width=30    height=24    xoffset=-1    yoffset=8     xadvance=32    page=0  chnl=15
char id=113  x=280   y=203   width=30    height=24    xoffset=-1    yoffset=8     xadvance=32    page=0  chnl=15
char id=114  x=31    y=236   width=30    height=20    xoffset=-1    yoffset=8     xadvance=32    page=0  chnl=15
char id=115  x=62    y=236   width=30    height=20    xoffset=-1    yoffset=8     xadvance=32    page=0  chnl=15
char id=116  x=156   y=207   width=30    height=24    xoffset=-1    yoffset=4     xadvance=32    page=0  chnl=15
char id=117  x=217   y=232   width=30    height=20    xoffset=-1    yoffset=8     xadvance=32    page=0  chnl=15
char id=118  x=403   y=203   width=30    height=20    xoffset=-1    yoffset=8     xadvance=32    page=0  chnl=15
char id=119  x=248   y=228   width=30    height=20    xoffset=-1    yoffset=8     xadvance=32    page=0  chnl=15
char id=120  x=372   y=203   width=30    height=20    xoffset=-1    yoffset=8     xadvance=32    page=0  chnl=15
char id=121  x=218   y=203   width=30    height=24    xoffset=-1    yoffset=8     xadvance=32    page=0  chnl=15
char id=122  x=124   y=236   width=30    height=20    xoffset=-1    yoffset=8     xadvance=32    page=0  chnl=15
char id=123  x=235   y=174   width=22    height=28    xoffset=3     yoffset=0     xadvance=32    page=0  chnl=15
char id=124  x=166   y=0     width=10    height=32    xoffset=11    yoffset=0     xadvance=32    page=0  chnl=15
char id=125  x=304   y=174   width=22    height=28    xoffset=7     yoffset=0     xadvance=32    page=0  chnl=15
char id=126  x=149   y=257   width=30    height=16    xoffset=-1    yoffset=8     xadvance=32    page=0  chnl=15
char id=130  x=149   y=274   width=48    height=1     xoffset=-12   yoffset=31    xadvance=32    page=0  chnl=15
char id=131  x=345   y=258   width=48    height=1     xoffset=-12   yoffset=31    xadvance=32    page=0  chnl=15
char id=132  x=296   y=262   width=48    height=1     xoffset=-12   yoffset=31    xadvance=32    page=0  chnl=15
char id=133  x=355   y=245   width=30    height=8     xoffset=-1    yoffset=16    xadvance=32    page=0  chnl=15
char id=134  x=135   y=149   width=26    height=28    xoffset=3     yoffset=0     xadvance=32    page=0  chnl=15
char id=135  x=162   y=149   width=26    height=28    xoffset=3     yoffset=0     xadvance=32    page=0  chnl=15
char id=136  x=247   y=266   width=48    height=1     xoffset=-12   yoffset=31    xadvance=32    page=0  chnl=15
char id=137  x=198   y=274   width=48    height=1     xoffset=-12   yoffset=31    xadvance=32    page=0  chnl=15
char id=138  x=248   y=87    width=30    height=28    xoffset=-1    yoffset=0     xadvance=32    page=0  chnl=15
char id=139  x=123   y=257   width=14    height=20    xoffset=7     yoffset=4     xadvance=32    page=0  chnl=15
char id=145  x=211   y=253   width=10    height=16    xoffset=11    yoffset=0     xadvance=32    page=0  chnl=15
char id=146  x=222   y=253   width=10    height=16    xoffset=7     yoffset=0     xadvance=32    page=0  chnl=15
char id=147  x=233   y=253   width=26    height=12    xoffset=3     yoffset=0     xadvance=32    page=0  chnl=15
char id=148  x=260   y=249   width=26    height=12    xoffset=-1    yoffset=0     xadvance=32    page=0  chnl=15
char id=153  x=0     y=236   width=30    height=20    xoffset=-1    yoffset=0     xadvance=32    page=0  chnl=15
char id=154  x=341   y=87    width=30    height=28    xoffset=-1    yoffset=0     xadvance=32    page=0  chnl=15
char id=155  x=496   y=203   width=14    height=20    xoffset=7     yoffset=4     xadvance=32    page=0  chnl=15
char id=156  x=108   y=149   width=26    height=28    xoffset=3     yoffset=0     xadvance=32    page=0  chnl=15
char id=159  x=81    y=149   width=26    height=28    xoffset=3     yoffset=0     xadvance=32    page=0  chnl=15
char id=161  x=491   y=0     width=18    height=28    xoffset=7     yoffset=0     xadvance=32    page=0  chnl=15
char id=162  x=487   y=116   width=22    height=28    xoffset=3     yoffset=0     xadvance=32    page=0  chnl=15
char id=163  x=155   y=120   width=30    height=28    xoffset=-1    yoffset=0     xadvance=32    page=0  chnl=15
char id=164  x=465   y=87    width=30    height=28    xoffset=-1    yoffset=0     xadvance=32    page=0  chnl=15
char id=165  x=54    y=149   width=26    height=28    xoffset=3     yoffset=0     xadvance=32    page=0  chnl=15
char id=166  x=496   y=87    width=6     height=28    xoffset=11    yoffset=0     xadvance=32    page=0  chnl=15
char id=167  x=177   y=31    width=3     height=1     xoffset=-1    yoffset=31    xadvance=32    page=0  chnl=15
char id=168  x=181   y=29    width=3     height=1     xoffset=-1    yoffset=31    xadvance=32    page=0  chnl=15
char id=169  x=177   y=0     width=34    height=28    xoffset=-1    yoffset=0     xadvance=32    page=0  chnl=15
char id=170  x=503   y=87    width=3     height=1     xoffset=-1    yoffset=31    xadvance=32    page=0  chnl=15
char id=171  x=484   y=224   width=26    height=20    xoffset=-1    yoffset=4     xadvance=32    page=0  chnl=15
char id=172  x=503   y=89    width=3     height=1     xoffset=-1    yoffset=31    xadvance=32    page=0  chnl=15
char id=173  x=481   y=245   width=22    height=4     xoffset=3     yoffset=12    xadvance=32    page=0  chnl=15
char id=174  x=0     y=0     width=34    height=32    xoffset=-1    yoffset=0     xadvance=32    page=0  chnl=15
char id=175  x=503   y=95    width=3     height=1     xoffset=-1    yoffset=31    xadvance=32    page=0  chnl=15
char id=176  x=54    y=257   width=22    height=20    xoffset=3     yoffset=0     xadvance=32    page=0  chnl=15
char id=177  x=503   y=99    width=3     height=1     xoffset=-1    yoffset=31    xadvance=32    page=0  chnl=15
char id=178  x=430   y=224   width=26    height=20    xoffset=3     yoffset=0     xadvance=32    page=0  chnl=15
char id=179  x=403   y=224   width=26    height=20    xoffset=3     yoffset=0     xadvance=32    page=0  chnl=15
char id=180  x=503   y=105   width=3     height=1     xoffset=-1    yoffset=31    xadvance=32    page=0  chnl=15
char id=181  x=503   y=93    width=3     height=1     xoffset=-1    yoffset=31    xadvance=32    page=0  chnl=15
char id=182  x=503   y=97    width=3     height=1     xoffset=-1    yoffset=31    xadvance=32    page=0  chnl=15
char id=183  x=401   y=245   width=10    height=8     xoffset=7     yoffset=8     xadvance=32    page=0  chnl=15
char id=184  x=503   y=101   width=3     height=1     xoffset=-1    yoffset=31    xadvance=32    page=0  chnl=15
char id=185  x=27    y=257   width=26    height=20    xoffset=3     yoffset=0     xadvance=32    page=0  chnl=15
char id=186  x=503   y=103   width=3     height=1     xoffset=-1    yoffset=31    xadvance=32    page=0  chnl=15
char id=187  x=0     y=257   width=26    height=20    xoffset=3     yoffset=4     xadvance=32    page=0  chnl=15
char id=188  x=177   y=29    width=3     height=1     xoffset=-1    yoffset=31    xadvance=32    page=0  chnl=15
char id=189  x=507   y=87    width=3     height=1     xoffset=-1    yoffset=31    xadvance=32    page=0  chnl=15
char id=190  x=503   y=91    width=3     height=1     xoffset=-1    yoffset=31    xadvance=32    page=0  chnl=15
char id=191  x=434   y=87    width=30    height=28    xoffset=-1    yoffset=0     xadvance=32    page=0  chnl=15
char id=192  x=279   y=58    width=30    height=28    xoffset=-1    yoffset=0     xadvance=32    page=0  chnl=15
char id=193  x=248   y=58    width=30    height=28    xoffset=-1    yoffset=0     xadvance=32    page=0  chnl=15
char id=194  x=279   y=29    width=30    height=28    xoffset=-1    yoffset=0     xadvance=32    page=0  chnl=15
char id=195  x=0     y=33    width=30    height=28    xoffset=-1    yoffset=0     xadvance=32    page=0  chnl=15
char id=196  x=62    y=120   width=30    height=28    xoffset=-1    yoffset=0     xadvance=32    page=0  chnl=15
char id=197  x=186   y=116   width=30    height=28    xoffset=-1    yoffset=0     xadvance=32    page=0  chnl=15
char id=198  x=124   y=120   width=30    height=28    xoffset=-1    yoffset=0     xadvance=32    page=0  chnl=15
char id=199  x=35    y=0     width=30    height=32    xoffset=-1    yoffset=0     xadvance=32    page=0  chnl=15
char id=200  x=189   y=145   width=26    height=28    xoffset=3     yoffset=0     xadvance=32    page=0  chnl=15
char id=201  x=216   y=145   width=26    height=28    xoffset=3     yoffset=0     xadvance=32    page=0  chnl=15
char id=202  x=243   y=145   width=26    height=28    xoffset=3     yoffset=0     xadvance=32    page=0  chnl=15
char id=203  x=352   y=116   width=26    height=28    xoffset=3     yoffset=0     xadvance=32    page=0  chnl=15
char id=204  x=270   y=145   width=26    height=28    xoffset=3     yoffset=0     xadvance=32    page=0  chnl=15
char id=205  x=297   y=145   width=26    height=28    xoffset=3     yoffset=0     xadvance=32    page=0  chnl=15
char id=206  x=324   y=145   width=26    height=28    xoffset=3     yoffset=0     xadvance=32    page=0  chnl=15
char id=207  x=351   y=145   width=26    height=28    xoffset=3     yoffset=0     xadvance=32    page=0  chnl=15
char id=208  x=403   y=87    width=30    height=28    xoffset=-1    yoffset=0     xadvance=32    page=0  chnl=15
char id=209  x=372   y=87    width=30    height=28    xoffset=-1    yoffset=0     xadvance=32    page=0  chnl=15
char id=210  x=310   y=87    width=30    height=28    xoffset=-1    yoffset=0     xadvance=32    page=0  chnl=15
char id=211  x=403   y=29    width=30    height=28    xoffset=-1    yoffset=0     xadvance=32    page=0  chnl=15
char id=212  x=372   y=29    width=30    height=28    xoffset=-1    yoffset=0     xadvance=32    page=0  chnl=15
char id=213  x=341   y=29    width=30    height=28    xoffset=-1    yoffset=0     xadvance=32    page=0  chnl=15
char id=214  x=310   y=29    width=30    height=28    xoffset=-1    yoffset=0     xadvance=32    page=0  chnl=15
char id=215  x=77    y=257   width=22    height=20    xoffset=3     yoffset=4     xadvance=32    page=0  chnl=15
char id=216  x=429   y=0     width=30    height=28    xoffset=-1    yoffset=0     xadvance=32    page=0  chnl=15
char id=217  x=398   y=0     width=30    height=28    xoffset=-1    yoffset=0     xadvance=32    page=0  chnl=15
char id=218  x=367   y=0     width=30    height=28    xoffset=-1    yoffset=0     xadvance=32    page=0  chnl=15
char id=219  x=336   y=0     width=30    height=28    xoffset=-1    yoffset=0     xadvance=32    page=0  chnl=15
char id=220  x=305   y=0     width=30    height=28    xoffset=-1    yoffset=0     xadvance=32    page=0  chnl=15
char id=221  x=378   y=145   width=26    height=28    xoffset=3     yoffset=0     xadvance=32    page=0  chnl=15
char id=222  x=274   y=0     width=30    height=28    xoffset=-1    yoffset=0     xadvance=32    page=0  chnl=15
char id=223  x=243   y=0     width=30    height=28    xoffset=-1    yoffset=0     xadvance=32    page=0  chnl=15
char id=224  x=405   y=145   width=26    height=28    xoffset=3     yoffset=0     xadvance=32    page=0  chnl=15
char id=225  x=432   y=145   width=26    height=28    xoffset=3     yoffset=0     xadvance=32    page=0  chnl=15
char id=226  x=459   y=145   width=26    height=28    xoffset=3     yoffset=0     xadvance=32    page=0  chnl=15
char id=227  x=0     y=178   width=26    height=28    xoffset=3     yoffset=0     xadvance=32    page=0  chnl=15
char id=228  x=27    y=178   width=26    height=28    xoffset=3     yoffset=0     xadvance=32    page=0  chnl=15
char id=229  x=54    y=178   width=26    height=28    xoffset=3     yoffset=0     xadvance=32    page=0  chnl=15
char id=230  x=434   y=203   width=30    height=20    xoffset=-1    yoffset=8     xadvance=32    page=0  chnl=15
char id=231  x=350   y=174   width=22    height=28    xoffset=3     yoffset=4     xadvance=32    page=0  chnl=15
char id=232  x=465   y=174   width=22    height=28    xoffset=3     yoffset=0     xadvance=32    page=0  chnl=15
char id=233  x=0     y=207   width=22    height=28    xoffset=3     yoffset=0     xadvance=32    page=0  chnl=15
char id=234  x=327   y=174   width=22    height=28    xoffset=3     yoffset=0     xadvance=32    page=0  chnl=15
char id=235  x=488   y=174   width=22    height=28    xoffset=3     yoffset=0     xadvance=32    page=0  chnl=15
char id=236  x=496   y=58    width=14    height=28    xoffset=7     yoffset=0     xadvance=32    page=0  chnl=15
char id=237  x=496   y=29    width=14    height=28    xoffset=7     yoffset=0     xadvance=32    page=0  chnl=15
char id=238  x=442   y=174   width=22    height=28    xoffset=3     yoffset=0     xadvance=32    page=0  chnl=15
char id=239  x=326   y=203   width=14    height=24    xoffset=7     yoffset=4     xadvance=32    page=0  chnl=15
char id=240  x=396   y=174   width=22    height=28    xoffset=3     yoffset=0     xadvance=32    page=0  chnl=15
char id=241  x=81    y=178   width=26    height=28    xoffset=3     yoffset=0     xadvance=32    page=0  chnl=15
char id=242  x=281   y=174   width=22    height=28    xoffset=3     yoffset=0     xadvance=32    page=0  chnl=15
char id=243  x=258   y=174   width=22    height=28    xoffset=3     yoffset=0     xadvance=32    page=0  chnl=15
char id=244  x=212   y=174   width=22    height=28    xoffset=3     yoffset=0     xadvance=32    page=0  chnl=15
char id=245  x=189   y=174   width=22    height=28    xoffset=3     yoffset=0     xadvance=32    page=0  chnl=15
char id=246  x=486   y=145   width=22    height=28    xoffset=3     yoffset=0     xadvance=32    page=0  chnl=15
char id=247  x=100   y=257   width=22    height=20    xoffset=3     yoffset=4     xadvance=32    page=0  chnl=15
char id=248  x=372   y=224   width=30    height=20    xoffset=-1    yoffset=8     xadvance=32    page=0  chnl=15
char id=249  x=108   y=178   width=26    height=28    xoffset=3     yoffset=0     xadvance=32    page=0  chnl=15
char id=250  x=135   y=178   width=26    height=28    xoffset=3     yoffset=0     xadvance=32    page=0  chnl=15
char id=251  x=162   y=178   width=26    height=28    xoffset=3     yoffset=0     xadvance=32    page=0  chnl=15
char id=252  x=217   y=116   width=26    height=28    xoffset=3     yoffset=0     xadvance=32    page=0  chnl=15
char id=253  x=93    y=0     width=26    height=32    xoffset=3     yoffset=0     xadvance=32    page=0  chnl=15
char id=254  x=66    y=0     width=26    height=32    xoffset=3     yoffset=0     xadvance=32    page=0  chnl=15
char id=255  x=120   y=0     width=26    height=32    xoffset=3     yoffset=0     xadvance=32    page=0  chnl=15
